        2014           2          10           6       56698        1.66        1.79        1.78        1.84        1.79        1.71        1.83        1.79         1.8
        2014           2          10           7       56698        1.66         1.8        1.74        1.84        1.77        1.72        1.81        1.77        1.81
        2014           2          10           8       56698        1.76        1.77        1.83        1.81        1.85        1.72        1.96        1.88        1.92
        2014           2          10           9       56698        1.75        1.73        1.76        1.84        1.77        1.74        1.96        1.87        1.92
        2014           2          10          10       56698        1.71        1.76        1.74        1.87        1.73        1.71        1.97        1.86        1.94
        2014           2          10          11       56698         1.7        1.82        1.68        1.87        1.66         1.7        1.97        1.84        1.94
        2014           2          10          12       56698        1.69        1.89        1.68        1.83        1.67         1.7        1.97        1.86        1.95
        2014           2          10          13       56698        1.69        1.85        1.69        1.84        1.69         1.7        1.91        1.88        1.95
        2014           2          10          14       56698        1.66        1.81        1.66        1.84        1.67        1.68        1.95         1.8        1.93
        2014           2          10          15       56698        1.76        1.87        1.69        1.95        1.68        1.94        1.95         1.8         2.0
        2014           2          10          16       56698        1.79        1.76        1.71        1.88        1.69        1.98        1.96         1.8        1.95
        2014           2          10          17       56698        1.79        1.75        1.76        1.82        1.74        1.98        1.92        1.81        1.95
        2014           2          10          18       56698        1.82        1.74         1.7        1.74        1.69         2.0        1.91        1.79        1.84
        2014           2          10          19       56698         1.7        1.57        1.61        1.63        1.63         1.8        1.82        1.75        1.76
        2014           2          10          20       56698        1.69        1.56         1.6        1.65        1.64         1.8        1.82        1.83        1.87
        2014           2          10          21       56698        1.63        1.52        1.65        1.57        1.71        1.76        1.95        1.92        1.89
        2014           2          10          22       56698        1.63        1.52        1.64        1.57        1.69        1.76        1.96        1.94         1.9
        2014           2          10          23       56698        1.59        1.52        1.64        1.57         1.7        1.76        1.96        1.94         1.9
        2014           2          11           0       56699        1.58        1.55        1.67        1.58        1.73        1.77        1.96        1.95        1.92
        2014           2          11           1       56699        1.61        1.64        1.74        1.57        1.79        1.78        1.98        1.92        1.96
        2014           2          11           2       56699        1.65        1.72        1.78        1.66         1.8        1.69        1.98        1.91        1.98
        2014           2          11           3       56699        1.68        1.73        1.67         1.7        1.68        1.68        1.99        1.82        1.96
        2014           2          11           4       56699        1.67        1.75        1.83        1.73        1.85        1.69        1.98        1.78        1.91
        2014           2          11           5       56699        1.68        1.74        1.71        1.74        1.67        1.97        1.85        1.66        1.79
        2014           2          11           6       56699        1.72        1.67        1.64        1.72        1.57        1.82        1.86        1.67        1.82
        2014           2          11           7       56699         1.8        1.68        1.65        1.71         1.6        1.83        1.82        1.75        1.87
        2014           2          11           8       56699        1.76        1.71        1.65        1.71        1.61        1.83        1.81        1.83        1.92
        2014           2          11           9       56699        1.74        1.69        1.66        1.72        1.61        1.83         1.8        1.92        1.91
        2014           2          11          10       56699        1.66        1.67        1.57        1.71        1.55        1.82        1.81        1.94        1.89
        2014           2          11          11       56699        1.61        1.65        1.59        1.71        1.56        1.75        1.84        1.94        1.88
        2014           2          11          12       56699        1.52        1.62        1.65        1.72        1.67        1.73        1.83        1.94        1.88
        2014           2          11          13       56699        1.49        1.58        1.57        1.73        1.58        1.73        1.84        1.98        1.92
        2014           2          11          14       56699        1.48        1.53        1.55        1.72        1.52        1.73        1.88        1.91        1.92
        2014           2          11          15       56699        1.48        1.51        1.55        1.72        1.48        1.73        1.91        1.92        1.89
        2014           2          11          16       56699        1.58        1.46        1.61        1.67        1.59        1.73        1.88        1.92        1.91
        2014           2          11          17       56699        1.73        1.55        1.65        1.69        1.66        1.99        1.68        1.89        1.94
        2014           2          11          18       56699        1.73        1.65        1.67        1.66        1.68        1.77        1.65        1.92        1.96
        2014           2          11          19       56699         1.6        1.58        1.62        1.67        1.62        1.53        1.56        1.86        1.87
        2014           2          11          20       56699         1.6        1.61        1.63        1.57        1.62        1.54        1.51        1.86        1.85
        2014           2          11          21       56699        1.59        1.61        1.62        1.57        1.61        1.54         1.5        1.85        1.84
        2014           2          11          22       56699        1.56        1.58        1.59        1.65         1.6        1.52        1.56        1.91        1.88
        2014           2          11          23       56699        1.51        1.61        1.58        1.69        1.57        1.52         1.6        1.89        1.85
        2014           2          12           0       56700        1.65        1.76        1.73        1.51        1.78        1.76        1.57         1.9        1.87
        2014           2          12           1       56700        1.57        1.75        1.66        1.51        1.69        1.69        1.57        1.91        1.86
        2014           2          12           2       56700         1.5         1.7        1.65        1.53        1.67        1.64        1.56         1.9        1.85
        2014           2          12           3       56700        1.51        1.68        1.66        1.53         1.7        1.85        1.55         1.8        1.84
        2014           2          12           4       56700        1.52        1.59        1.54        1.49         1.5        1.84        1.58        1.75        1.82
        2014           2          12           5       56700        1.53        1.56        1.53        1.49        1.49        1.84         1.6        1.68        1.81
        2014           2          12           6       56700        1.52        1.45        1.47        1.49        1.43        1.84        1.77        1.69        1.82
        2014           2          12           7       56700        1.77        1.47        1.53        1.51        1.47        1.84        1.75        1.71        1.93
        2014           2          12           8       56700        1.84        1.52        1.59        1.62        1.52        1.91        1.85        1.85        1.94
        2014           2          12           9       56700        1.66        1.75        1.82        1.81        1.82        1.68        1.93        1.85        1.96
