        2014           2          10          10         -29         -21         -21         -25         -23
        2014           2          10          11         -29         -29         -20         -21         -24
        2014           2          10          12         -26         -26         -28         -20         -20
        2014           2          10          13         -23         -22         -23         -25         -20
        2014           2          10          14         -21         -20         -19         -21         -22
        2014           2          10          15         -20         -20         -18         -18         -18
        2014           2          10          16         -18         -18         -19         -17         -17
        2014           2          10          17         -15         -16         -17         -17         -16
        2014           2          10          18          -7         -11         -15         -15         -16
        2014           2          10          19          -9          -7         -11         -13         -14
        2014           2          10          20         -18         -14         -10         -11         -13
        2014           2          10          21         -17         -18         -15         -11         -13
        2014           2          10          22         -16         -16         -17         -16         -14
        2014           2          10          23         -18         -17         -16         -16         -15
        2014           2          11           0         -15         -17         -16         -16         -16
        2014           2          11           1         -14         -13         -16         -15         -15
        2014           2          11           2         -13         -13         -14         -14         -14
        2014           2          11           3         -13         -12         -13         -13         -14
        2014           2          11           4         -14         -12         -13         -13         -14
        2014           2          11           5         -14         -14         -13         -14         -14
        2014           2          11           6         -16         -14         -14         -13         -14
        2014           2          11           7         -17         -16         -14         -14         -14
        2014           2          11           8         -18         -15         -16         -14         -15
        2014           2          11           9         -17         -16         -15         -15         -14
        2014           2          11          10         -18         -15         -15         -15         -15
        2014           2          11          11         -18         -16         -15         -15         -15
        2014           2          11          12         -15         -15         -14         -14         -15
        2014           2          11          13         -12         -12         -13         -13         -14
        2014           2          11          14         -11         -10         -10         -12         -13
        2014           2          11          15         -10          -9          -9         -10         -12
        2014           2          11          16          -8          -8          -9          -9         -10
        2014           2          11          17          -3          -6          -6          -7          -8
        2014           2          11          18           0           0          -5          -6          -6
        2014           2          11          19          -2           0          -1          -5          -5
        2014           2          11          20          -9          -7          -2          -3          -5
        2014           2          11          21         -15         -13         -10          -4          -5
        2014           2          11          22         -18         -17         -13         -10          -5
        2014           2          11          23         -19         -19         -16         -12         -10
        2014           2          12           0         -11         -19         -19         -14         -11
        2014           2          12           1          -8          -6         -17         -16         -12
        2014           2          12           2          -8          -6          -4         -15         -16
        2014           2          12           3         -11          -7          -7          -5         -16
        2014           2          12           4         -17         -12          -8          -7          -8
        2014           2          12           5         -20         -20         -12         -10          -9
        2014           2          12           6         -19         -21         -21         -13         -10
        2014           2          12           7         -18         -18         -20         -20         -12
        2014           2          12           8         -17         -17         -17         -19         -18
        2014           2          12           9         -13         -16         -16         -17         -17
        2014           2          12          10        9999         -12         -15         -17         -16
        2014           2          12          11        9999         -11         -13         -16         -16
        2014           2          12          12        9999        9999         -11         -14         -15
        2014           2          12          13        9999        9999        9999         -12         -12
        2014           2          12          14        9999        9999        9999        9999         -10
