   1 -.338855E+01 .373141E+01    50.87  .995985E-12 100.00 1  0   0 1
   2  .521288E-01 .833987E-01    24.10  .916327E-06 100.00 1 11   2 1
   3  .449847E-01 .485868E-01    52.88  .358475E-12 100.00 1 11   4 1
   4  .532312E-01 .419346E-01    99.40  .214287E-22 100.00 1 11   8 1
   5  .307266E-01 .371794E-01    42.13  .858802E-10 100.00 1 11  10 1
   6  .576828E-01 .597712E-01    57.45  .350774E-13 100.00 1 11  19 1
   7  .711990E-01 .949114E-01    34.71  .383666E-08 100.00 1 11  20 1
   8  .608974E-01 .721566E-01    43.94  .341481E-10 100.00 1 11  21 1
   9  .373559E+00 .773489E+00    14.39  .148863E-03  99.99 1 11  44 1
  10 -.285602E-01 .239767E-01    87.53  .856271E-20 100.00 1 11  48 1
  11  .170375E-01 .227208E-01    34.69  .389212E-08 100.00 1 11  68 1
  12 -.145839E-01 .225281E-01    25.85  .369597E-06 100.00 1 11  72 1
  13  .295596E-01 .223244E-01   108.15  .260340E-24 100.00 1 11  92 1
  14 -.262061E-01 .223270E-01    84.99  .309020E-19 100.00 1 11  96 1
  15  .304286E-01 .253161E-01    89.12  .383405E-20 100.00 1 11 117 1
  16 -.229906E-01 .253374E-01    50.79  .103845E-11 100.00 1 11 120 1
  17  .430979E-02 .137355E-01     6.07  .137274E-01  98.63 1 11 140 1
  18  .127534E-01 .220297E-01    20.67  .545322E-05 100.00 1 11 164 1
  19 -.880646E-02 .216139E-01    10.24  .137434E-02  99.86 1 11 168 1
  20  .172220E-01 .219898E-01    37.84  .773365E-09 100.00 1 11 212 1
  21 -.203600E-01 .224248E-01    50.85  .100672E-11 100.00 1 11 216 1
  22  .219669E-01 .255812E-01    45.49  .154871E-10 100.00 1 11 236 1
  23 -.174521E-01 .255410E-01    28.80  .804569E-07 100.00 1 11 239 1
  24  .952944E-02 .253272E-01     8.73  .312635E-02  99.69 1 11 260 1
  25 -.971767E-02 .249780E-01     9.34  .224669E-02  99.78 1 11 263 1
  26  .854966E-02 .219051E-01     9.40  .217396E-02  99.78 1 11 308 1
  27 -.683574E-02 .223149E-01     5.79  .161328E-01  98.39 1 11 312 1
  28  .550093E-02 .129541E-01    11.12  .852742E-03  99.91 1 11 332 1
  29  .551138E-02 .110929E-01    15.23  .954075E-04  99.99 1 11 638 1
  30  .427356E+01 .311552E+01   116.07  .483272E-26 100.00 1  1   0 1
  31 -.246260E+00 .223921E+00    74.61  .585949E-17 100.00 1  1   3 1
  32  .530485E-01 .182011E+00     5.24  .220741E-01  97.79 1  1   6 1
  33  .726674E-01 .158776E+00    12.92  .325098E-03  99.97 1  1  20 1
  34 -.938831E+00 .131387E+01    31.50  .200549E-07 100.00 1  1  24 1
  35  .576992E-02 .118383E-01    14.65  .129280E-03  99.99 1  2   4 1
  36 -.350728E-02 .114021E-01     5.84  .156984E-01  98.43 1  2   5 1
  37 -.355734E-02 .911547E-02     9.39  .217684E-02  99.78 1  2  15 1
  38  .817242E-03 .301634E-02     4.53  .333421E-01  96.67 1  3   3 1
  39  .635679E-01 .932635E-01    28.66  .866301E-07 100.00 1  4   6 1
  40 -.490855E-01 .108451E+00    12.64  .378506E-03  99.96 1  4  12 1
  41 -.279615E-01 .102236E+00     4.61  .317098E-01  96.83 1  4  15 1
  42 -.391780E-01 .831715E-01    13.69  .216034E-03  99.98 1  5   2 1
  43  .183593E+01 .485135E+01     8.83  .295699E-02  99.70 1  6   1 1
  44  .917037E-01 .156395E+00    21.21  .412568E-05 100.00 1  6   2 1
  45  .101026E+00 .142657E+00    30.94  .267557E-07 100.00 1  6   3 1
  46 -.698151E-01 .102823E+00    28.44  .970156E-07 100.00 1  6   7 1
  47 -.109364E+00 .132655E+00    41.93  .953806E-10 100.00 1  6  21 1
  48 -.145520E+00 .142108E+00    64.69  .892719E-15 100.00 1  6  22 1
  49 -.120711E+00 .120425E+00    61.98  .352012E-14 100.00 1  6  23 1
  50 -.123774E+00 .786052E-01   152.95  .428899E-34 100.00 1  8   8 1
  51 -.917635E-01 .806700E-01    79.82  .420189E-18 100.00 1  8  19 1
  52  .779921E-02 .477502E-02   164.57  .125838E-36 100.00 1  9  23 1
  53 -.316450E+00 .340988E+00    53.13  .315867E-12 100.00 1 13   0 1
  54  .152979E-04 .968604E-05   153.87  .269839E-34 100.00 3 11   0 1 11   1 1  1   0 2
  55 -.218385E-03 .171955E-03    99.50  .203943E-22 100.00 3 11   0 1 11   1 1  6   0 1
  56 -.489250E-05 .148170E-04     6.73  .950552E-02  99.05 4 11   0 1 11   1 1  6   0 1  6   1 1
  57  .318431E-05 .482241E-05    26.90  .215265E-06 100.00 4 11   0 1 11   1 1  8   0 1  8  24 1
  58 -.574304E-06 .668731E-06    45.50  .154160E-10 100.00 4 11   0 1 11  24 1 11  44 1  1  24 1
  59  .292236E-05 .307217E-05    55.82  .804781E-13 100.00 4 11   0 1 11  24 1  1   0 1  2   0 1
  60 -.173407E-04 .210012E-04    42.06  .892527E-10 100.00 4 11   0 1 11  24 1  1   0 1  6   0 1
  61  .111413E-04 .582266E-05   225.85  .579547E-50 100.00 3 11   0 1 11  24 1  9   0 1
  62 -.125633E-07 .700752E-08   198.28  .575426E-44 100.00 3 11   0 1 11  24 1  9   0 2
  63  .553596E-05 .628696E-05    47.83  .468957E-11 100.00 4 11   0 1 11  44 1  1   0 1  2   0 1
  64  .110947E-04 .208881E-04    17.40  .302676E-04 100.00 4 11   0 1 11  44 1  1   0 1  6   0 1
  65  .390502E-06 .763440E-06    16.14  .589050E-04  99.99 4 11   0 1 11  44 1  1   0 1  9   0 1
  66  .151814E-04 .175524E-04    46.15  .110591E-10 100.00 3 11   0 1 11  44 1  1   0 2
  67  .158469E-04 .188807E-04    43.46  .436828E-10 100.00 4 11   0 1 11  44 1  1  24 1  8   0 1
  68 -.498088E-04 .557894E-04    49.17  .236869E-11 100.00 3 11   0 1 11  44 1  2   0 1
  69 -.222096E-04 .258187E-04    45.65  .142761E-10 100.00 3 11   0 1 11  44 1  6   0 2
  70 -.100057E-03 .283669E-03     7.67  .560119E-02  99.44 3 11   0 1 11  44 1  8   0 1
  71 -.144211E-04 .183366E-04    38.16  .657075E-09 100.00 4 11   0 1 11  44 1  8   0 1  8  24 1
  72 -.367839E-02 .279112E-02   107.14  .433049E-24 100.00 3 11   0 1  1   0 1  1  24 1
  73 -.143675E-04 .160067E-04    49.70  .180905E-11 100.00 4 11   0 1  1   0 1  2   0 1  6   0 1
  74  .313100E-04 .205833E-04   142.74  .724891E-32 100.00 4 11   0 1  1   0 1  2   0 1  8   0 1
  75 -.110765E-04 .354219E-04     6.03  .140515E-01  98.59 4 11   0 1  1   0 1  6   0 1  6   1 1
  76  .444407E-05 .276471E-05   159.39  .169368E-35 100.00 4 11   0 1  1   0 1  8  24 1  9   0 1
  77 -.447886E-04 .325843E-04   116.55  .379101E-26 100.00 4 11   0 1  1  24 1  2   0 1  6   1 1
  78  .568316E-03 .301435E-03   219.28  .155880E-48 100.00 4 11   0 1  1  24 1  6   0 1  6   1 1
  79 -.124317E-03 .204990E-03    22.69  .190976E-05 100.00 3 11   0 1  1  24 1  6   0 2
  80  .695937E-04 .628722E-04    75.58  .358252E-17 100.00 3 11   0 1  1  24 1  9   0 1
  81 -.114789E-05 .129210E-05    48.69  .303174E-11 100.00 3 11   0 1  1  24 2  9   0 1
  82  .130837E-04 .129246E-04    63.22  .188188E-14 100.00 2 11   0 1  1  24 3
  83  .124239E-02 .463439E-02     4.43  .352484E-01  96.48 2 11   0 1  2   0 1
  84  .142807E-04 .288105E-04    15.16  .990670E-04  99.99 4 11   0 1  2   0 1  6   0 1  8   0 1
  85 -.118148E-04 .229140E-04    16.40  .513379E-04  99.99 3 11   0 1  2   0 1  6   0 2
  86  .373821E-03 .252485E-03   135.22  .315976E-30 100.00 3 11   0 1  2   0 1  6   1 1
  87 -.551275E-05 .113640E-04    14.52  .139049E-03  99.99 4 11   0 1  2   0 1  8   0 1  8  24 1
  88  .288042E-03 .620682E-03    13.29  .267704E-03  99.97 3 11   0 1  2   0 1  8  24 1
  89 -.116818E-04 .215973E-04    18.05  .215758E-04 100.00 3 11   0 1  2   0 1  8  24 2
  90 -.608627E-05 .883442E-05    29.28  .629179E-07 100.00 3 11   0 1  2   0 1  9   0 1
  91  .281118E-01 .537675E-01    16.86  .402271E-04 100.00 2 11   0 1  6   0 1
  92  .329631E-04 .927390E-04     7.79  .524526E-02  99.48 4 11   0 1  6   0 1  6   1 1  8   0 1
  93 -.159244E-02 .129746E-02    92.93  .561132E-21 100.00 3 11   0 1  6   0 1  8   0 1
  94 -.531042E-04 .944043E-04    19.52  .997290E-05 100.00 3 11   0 1  6   0 1  9   0 1
  95 -.102132E-03 .175439E-03    20.91  .483285E-05 100.00 3 11   0 1  6   0 2  8  24 1
  96 -.254747E-05 .296972E-05    45.39  .162567E-10 100.00 3 11   0 1  6   0 2  9   0 1
  97  .906343E-03 .179462E-02    15.73  .729834E-04  99.99 3 11   0 1  6   1 1  8   0 1
  98 -.171786E-05 .213119E-05    40.08  .245324E-09 100.00 4 11   0 1  6   1 1  8   0 1  9   0 1
  99  .151744E-02 .390436E-02     9.32  .227007E-02  99.77 3 11   0 1  6   1 1  8  24 1
 100 -.609669E-04 .130797E-03    13.40  .251472E-03  99.97 3 11   0 1  6   1 1  8  24 2
 101 -.332637E-05 .283102E-05    85.16  .282490E-19 100.00 3 11   0 1  6   1 2  9   0 1
 102  .104893E-01 .993926E-02    68.70  .116524E-15 100.00 2 11   0 1  8   0 1
 103  .157446E-03 .468393E-03     6.97  .829021E-02  99.17 2 11   0 1  8   0 2
 104 -.462456E-06 .106138E-05    11.71  .621667E-03  99.94 3 11   0 1  8   0 2  9   0 1
 105 -.349282E-04 .243012E-04   127.44  .158539E-28 100.00 3 11   0 1  8  24 1  9   0 1
 106  .426237E-02 .192324E-02   302.99  .103615E-66 100.00 2 11   0 1  9   0 1
 107 -.913697E-05 .624582E-05   132.01  .158649E-29 100.00 2 11   0 1  9   0 2
 108  .520101E-08 .492678E-08    68.75  .114068E-15 100.00 2 11   0 1  9   0 3
 109  .332438E-05 .166625E-05   245.55  .304186E-54 100.00 3 11   0 2 11   1 1  1   0 1
 110  .262707E-05 .309069E-05    44.57  .247509E-10 100.00 3 11   0 2 11   1 1  6   1 1
 111  .117356E-05 .211017E-05    19.08  .125559E-04 100.00 3 11   0 2 11  24 1  6   0 1
 112  .155690E-06 .450292E-06     7.37  .661748E-02  99.34 3 11   0 2 11  24 1  8  24 1
 113  .494007E-07 .401836E-07    93.23  .480764E-21 100.00 3 11   0 2 11  44 1  9   0 1
 114 -.178767E-03 .177952E-03    62.25  .306527E-14 100.00 2 11   0 2  1   0 1
 115  .286290E-05 .409924E-05    30.09  .414266E-07 100.00 3 11   0 2  1   0 1  8  24 1
 116 -.821929E-05 .618776E-05   108.84  .183816E-24 100.00 2 11   0 2  1   0 2
 117  .145697E-06 .220929E-06    26.83  .222993E-06 100.00 2 11   0 2  2   0 2
 118 -.272585E-05 .894606E-05     5.73  .167077E-01  98.33 2 11   0 2  6   0 2
 119 -.289691E-05 .146875E-05   239.98  .493601E-53 100.00 2 11   0 3  1   0 1
 120 -.218305E-05 .230657E-05    55.26  .107002E-12 100.00 2 11   0 3  6   1 1
 121 -.151253E-05 .309178E-05    14.76  .121994E-03  99.99 4 11   1 1 11  24 1 11  44 1  6   0 1
 122 -.138883E-04 .124720E-04    76.49  .226035E-17 100.00 4 11   1 1 11  24 1  1   0 1  8   0 1
 123  .289581E-03 .357944E-03    40.37  .211012E-09 100.00 3 11   1 1 11  24 1  6   0 1
 124 -.114223E-03 .325301E-03     7.61  .582028E-02  99.42 3 11   1 1 11  24 1  6   1 1
 125  .429036E-05 .915218E-05    13.56  .231721E-03  99.98 2 11   1 1 11  24 2
 126  .502725E-06 .136530E-05     8.36  .382893E-02  99.62 3 11   1 1 11  24 2  6   0 1
 127  .404365E-06 .141838E-05     5.01  .251514E-01  97.48 3 11   1 1 11  24 2  8   0 1
 128 -.332723E-02 .417822E-02    39.12  .401313E-09 100.00 2 11   1 1 11  44 1
 129 -.234217E-03 .311616E-03    34.85  .358004E-08 100.00 3 11   1 1 11  44 1  1   0 1
 130 -.135861E-04 .174589E-04    37.36  .990023E-09 100.00 4 11   1 1 11  44 1  1   0 1  6   0 1
 131  .208133E-04 .253270E-04    41.66  .109386E-09 100.00 3 11   1 1 11  44 1  6   0 2
 132  .726299E-05 .964010E-05    35.02  .328629E-08 100.00 3 11   1 1 11  44 1  8   0 2
 133  .642399E-05 .700027E-05    51.95  .575642E-12 100.00 3 11   1 1 11  44 1  9   0 1
 134  .382673E-02 .265699E-02   127.96  .121896E-28 100.00 3 11   1 1  1   0 1  1  24 1
 135  .152422E-04 .180373E-04    44.05  .322470E-10 100.00 4 11   1 1  1   0 1  1  24 1  2   0 1
 136  .894720E-04 .114427E-03    37.72  .823269E-09 100.00 4 11   1 1  1   0 1  1  24 1  6   1 1
 137 -.556279E-04 .759003E-04    33.14  .863258E-08 100.00 4 11   1 1  1   0 1  1  24 1  8  24 1
 138 -.126231E-04 .171233E-04    33.52  .707200E-08 100.00 4 11   1 1  1   0 1  2   0 1  8   0 1
 139 -.266703E-02 .118215E-02   313.98  .428148E-69 100.00 3 11   1 1  1   0 1  6   0 1
 140 -.931900E-03 .103190E-02    50.31  .132555E-11 100.00 3 11   1 1  1   0 1  6   1 1
 141 -.395947E-05 .205257E-05   229.55  .911334E-51 100.00 4 11   1 1  1   0 1  8   0 1  9   0 1
 142  .661277E-05 .124882E-04    17.30  .320140E-04 100.00 3 11   1 1  1   0 2  2   0 1
 143  .765585E-04 .385720E-04   243.02  .107825E-53 100.00 3 11   1 1  1   0 2  8   0 1
 144 -.318463E-04 .480599E-04    27.09  .195151E-06 100.00 3 11   1 1  1   0 2  8  24 1
 145  .279492E-04 .323878E-04    45.94  .123061E-10 100.00 4 11   1 1  1  24 1  2   0 1  6   0 1
 146 -.473969E-02 .394680E-02    88.96  .414764E-20 100.00 3 11   1 1  1  24 1  6   0 1
 147 -.352415E-03 .229324E-03   145.68  .165065E-32 100.00 4 11   1 1  1  24 1  6   0 1  6   1 1
 148  .942402E-04 .139586E-03    28.12  .114507E-06 100.00 4 11   1 1  1  24 1  6   0 1  8   0 1
 149  .668472E-05 .721031E-05    53.02  .333483E-12 100.00 4 11   1 1  1  24 1  6   0 1  9   0 1
 150 -.645424E-04 .143095E-03    12.55  .396516E-03  99.96 4 11   1 1  1  24 1  6   1 1  8   0 1
 151  .668768E-03 .820157E-03    41.02  .151982E-09 100.00 3 11   1 1  1  24 1  8  24 1
 152 -.640044E-04 .556787E-04    81.51  .178409E-18 100.00 3 11   1 1  1  24 1  9   0 1
 153 -.207420E-04 .295382E-04    30.42  .349563E-07 100.00 4 11   1 1  2   0 1  6   0 1  8   0 1
 154  .147962E-04 .199082E-04    34.07  .532766E-08 100.00 3 11   1 1  2   0 1  6   0 2
 155 -.305037E-03 .557344E-03    18.48  .172123E-04 100.00 3 11   1 1  2   0 1  8  24 1
 156  .124050E-04 .199122E-04    23.94  .995358E-06 100.00 3 11   1 1  2   0 1  8  24 2
 157 -.296615E-04 .917003E-04     6.45  .110714E-01  98.89 4 11   1 1  6   0 1  6   1 1  8   0 1
 158  .116959E-03 .938181E-04    95.87  .126907E-21 100.00 3 11   1 1  6   0 1  9   0 1
 159 -.586998E-07 .110454E-06    17.42  .299678E-04 100.00 3 11   1 1  6   0 1  9   0 2
 160  .165050E-02 .176336E-02    54.04  .198296E-12 100.00 2 11   1 1  6   0 2
 161  .249976E-04 .696330E-04     7.95  .481043E-02  99.52 3 11   1 1  6   0 2  8   0 1
 162  .814303E-04 .170255E-03    14.11  .172444E-03  99.98 3 11   1 1  6   0 2  8  24 1
 163  .727304E-03 .157607E-02    13.14  .289818E-03  99.97 3 11   1 1  6   1 1  8   0 1
 164 -.143596E-02 .371863E-02     9.20  .242310E-02  99.76 3 11   1 1  6   1 1  8  24 1
 165  .555416E-04 .118566E-03    13.54  .234119E-03  99.98 3 11   1 1  6   1 1  8  24 2
 166  .268633E-05 .263767E-05    63.98  .127399E-14 100.00 3 11   1 1  6   1 2  9   0 1
 167 -.217526E-02 .185108E-02    85.19  .279112E-19 100.00 2 11   1 1  9   0 1
 168  .659281E-05 .597865E-05    75.01  .478076E-17 100.00 2 11   1 1  9   0 2
 169 -.482297E-08 .474766E-08    63.66  .150200E-14 100.00 2 11   1 1  9   0 3
 170 -.717162E-06 .167700E-05    11.28  .783302E-03  99.92 3 11   1 2 11  24 1  6   1 1
 171 -.205109E-04 .320004E-04    25.34  .481175E-06 100.00 2 11   1 2 11  44 1
 172  .198345E-05 .221793E-05    49.33  .218010E-11 100.00 3 11   1 2 11  44 1  1   0 1
 173  .796932E-07 .293269E-06     4.56  .328232E-01  96.72 3 11   1 2 11  44 1  2   0 1
 174  .496984E-03 .201078E-03   376.83  .103325E-82 100.00 2 11   1 2  1   0 1
 175  .174194E-05 .119541E-05   130.99  .265945E-29 100.00 3 11   1 2  1   0 1  2   0 1
 176 -.371837E-05 .367000E-05    63.32  .178068E-14 100.00 3 11   1 2  1   0 1  6   1 1
 177 -.216307E-06 .200336E-06    71.91  .229173E-16 100.00 3 11   1 2  1   0 1  9   0 1
 178 -.789350E-05 .851872E-05    52.96  .343304E-12 100.00 2 11   1 2  1   0 2
 179  .498548E-05 .114762E-04    11.64  .645291E-03  99.94 3 11   1 2  1  24 1  6   0 1
 180 -.210463E-05 .827613E-05     3.99  .457957E-01  95.42 3 11   1 2  1  24 1  8   0 1
 181  .500223E-05 .145814E-04     7.26  .705320E-02  99.29 3 11   1 2  6   0 1  6   1 1
 182  .289136E-05 .816088E-05     7.74  .539275E-02  99.46 2 11   1 2  6   0 2
 183  .396036E-05 .489678E-05    40.35  .213651E-09 100.00 3 11   1 2  6   1 1  8  24 1
 184 -.110682E-06 .117514E-06    54.72  .140387E-12 100.00 3 11   1 2  8   0 1  9   0 1
 185 -.650068E-05 .350379E-05   212.34  .501554E-47 100.00 2 11   1 2  9   0 1
 186  .888634E-07 .123842E-06    31.76  .174996E-07 100.00 2 11   1 3 11  44 1
 187 -.905016E-07 .279393E-06     6.47  .109575E-01  98.90 2 11   1 3  6   0 1
 188 -.633053E-06 .943710E-06    27.76  .137853E-06 100.00 2 11   1 3  6   1 1
 189 -.198486E-07 .140569E-07   122.99  .148329E-27 100.00 2 11   1 3  9   0 1
 190 -.181937E-05 .430600E-05    11.01  .905453E-03  99.91 4 11  24 1 11  44 1  1   0 1  2   0 1
 191  .148355E-04 .171974E-04    45.91  .125082E-10 100.00 4 11  24 1 11  44 1  1   0 1  8   0 1
 192 -.422562E-05 .825749E-05    16.15  .584588E-04  99.99 4 11  24 1 11  44 1  1  24 1  8  24 1
 193  .206014E-04 .339439E-04    22.72  .187516E-05 100.00 3 11  24 1 11  44 1  2   0 1
 194 -.207590E-06 .261107E-06    38.99  .428114E-09 100.00 3 11  24 1 11  44 1  2   0 2
 195 -.933622E-05 .239886E-04     9.34  .223814E-02  99.78 4 11  24 1 11  44 1  6   0 1  6   1 1
 196 -.355720E-06 .543230E-06    26.45  .271041E-06 100.00 4 11  24 1 11  44 1  6   0 1  9   0 1
 197 -.882749E-05 .208221E-04    11.09  .869764E-03  99.91 3 11  24 1 11  44 1  6   0 2
 198 -.160559E-04 .118066E-04   114.08  .131362E-25 100.00 3 11  24 1 11  44 1  8   0 2
 199  .815014E-04 .137851E-03    21.56  .343075E-05 100.00 3 11  24 1 11  44 1  8  24 1
 200 -.119847E-02 .129159E-02    53.11  .318418E-12 100.00 3 11  24 1  1   0 1  1  24 1
 201 -.126701E-03 .187564E-03    28.15  .112712E-06 100.00 4 11  24 1  1   0 1  1  24 1  6   0 1
 202  .118870E-03 .161084E-03    33.59  .682717E-08 100.00 4 11  24 1  1   0 1  1  24 1  6   1 1
 203  .256474E-04 .324794E-04    38.46  .560692E-09 100.00 4 11  24 1  1   0 1  2   0 1  8   0 1
 204 -.101675E-05 .199332E-05    16.05  .617609E-04  99.99 3 11  24 1  1   0 1  2   0 2
 205 -.266913E-02 .328420E-02    40.75  .174553E-09 100.00 3 11  24 1  1   0 1  6   0 1
 206 -.148844E-03 .183797E-03    40.46  .202365E-09 100.00 4 11  24 1  1   0 1  6   0 1  8   0 1
 207  .793958E-05 .666990E-05    87.41  .908858E-20 100.00 4 11  24 1  1   0 1  6   0 1  9   0 1
 208 -.114491E-02 .203002E-02    19.62  .945349E-05 100.00 3 11  24 1  1   0 1  6   1 1
 209  .361385E-04 .787037E-04    13.01  .310717E-03  99.97 4 11  24 1  1   0 1  6   1 1  8   0 1
 210  .386814E-04 .964620E-04     9.92  .163613E-02  99.84 4 11  24 1  1   0 1  6   1 1  8  24 1
 211  .192462E-04 .510470E-04     8.77  .306518E-02  99.69 3 11  24 1  1   0 1  8   0 2
 212 -.645800E-03 .636929E-03    63.42  .169814E-14 100.00 3 11  24 1  1   0 1  8  24 1
 213  .286130E-04 .347070E-04    41.93  .954227E-10 100.00 3 11  24 1  1   0 1  9   0 1
 214  .131826E-03 .111326E-03    86.50  .143939E-19 100.00 3 11  24 1  1   0 2  1  24 1
 215  .429651E-04 .773026E-04    19.06  .127103E-04 100.00 3 11  24 1  1   0 2  8   0 1
 216 -.173297E-05 .247371E-05    30.27  .376372E-07 100.00 3 11  24 1  1   0 2  9   0 1
 217  .191056E-02 .293392E-02    26.16  .315312E-06 100.00 3 11  24 1  1  24 1  6   0 1
 218 -.142944E-05 .495099E-05     5.14  .233556E-01  97.66 4 11  24 1  1  24 1  6   0 1  9   0 1
 219 -.790134E-04 .102525E-03    36.64  .142956E-08 100.00 3 11  24 1  1  24 1  6   1 2
 220  .150219E-03 .274494E-03    18.47  .172407E-04 100.00 3 11  24 1  1  24 1  8  24 1
 221 -.177115E-04 .285675E-04    23.71  .112152E-05 100.00 3 11  24 1  1  24 2  6   1 1
 222 -.131100E-02 .386287E-02     7.11  .768752E-02  99.23 2 11  24 1  2   0 1
 223 -.610720E-05 .151066E-04    10.08  .149790E-02  99.85 3 11  24 1  2   0 1  8   0 2
 224  .374980E-05 .762060E-05    14.94  .111326E-03  99.99 3 11  24 1  2   0 1  9   0 1
 225 -.151131E-05 .308935E-05    14.76  .122029E-03  99.99 4 11  24 1  6   0 1  6   1 1  9   0 1
 226  .531056E-04 .970201E-04    18.48  .171741E-04 100.00 3 11  24 1  6   0 1  8   0 2
 227  .450842E-03 .871606E-03    16.50  .485881E-04 100.00 3 11  24 1  6   0 1  8  24 1
 228 -.955718E-07 .793083E-07    89.58  .303421E-20 100.00 3 11  24 1  6   0 1  9   0 2
 229  .382193E-04 .754310E-04    15.84  .691267E-04  99.99 3 11  24 1  6   0 2  8  24 1
 230 -.219121E-04 .292266E-04    34.67  .391567E-08 100.00 3 11  24 1  6   1 1  8  24 2
 231  .198615E-05 .332562E-05    22.00  .272832E-05 100.00 3 11  24 1  6   1 2  9   0 1
 232  .140845E-05 .209520E-05    27.88  .129747E-06 100.00 4 11  24 1  8   0 1  8  24 1  9   0 1
 233 -.718428E-07 .527030E-07   114.63  .997806E-26 100.00 3 11  24 1  8   0 1  9   0 2
 234 -.387907E-04 .446830E-04    46.49  .928265E-11 100.00 3 11  24 1  8   0 2  8  24 1
 235 -.175111E-03 .170845E-03    64.81  .839691E-15 100.00 2 11  24 2  1   0 1
 236  .654724E-05 .157096E-04    10.71  .106338E-02  99.89 3 11  24 2  1   0 1  8   0 1
 237  .132555E-04 .126895E-04    67.31  .235747E-15 100.00 2 11  24 2  1   0 2
 238  .394388E-04 .100328E-03     9.53  .201969E-02  99.80 2 11  24 2  6   1 1
 239 -.243654E-06 .341786E-06    31.35  .216335E-07 100.00 3 11  24 2  8   0 1  9   0 1
 240  .732513E-05 .833041E-05    47.70  .501796E-11 100.00 2 11  24 2  8   0 2
 241  .228195E-07 .519358E-07    11.91  .558999E-03  99.94 3 11  24 2  8  24 1  9   0 1
 242  .169222E-07 .410848E-07    10.47  .121708E-02  99.88 2 11  24 3  2   0 1
 243 -.377231E-08 .363803E-08    66.33  .388851E-15 100.00 2 11  24 3  9   0 1
 244 -.760366E-04 .154482E-03    14.94  .110817E-03  99.99 4 11  44 1  1   0 1  1  24 1  6   1 1
 245  .225905E-04 .589157E-04     9.07  .260005E-02  99.74 3 11  44 1  1   0 1  1  24 2
 246 -.338764E-03 .469413E-03    32.13  .144945E-07 100.00 3 11  44 1  1   0 1  2   0 1
 247 -.171296E-04 .294210E-04    20.91  .482018E-05 100.00 4 11  44 1  1   0 1  2   0 1  6   1 1
 248 -.227601E-04 .354637E-04    25.41  .465105E-06 100.00 4 11  44 1  1   0 1  2   0 1  8   0 1
 249  .965984E-06 .940802E-06    65.03  .748282E-15 100.00 4 11  44 1  1   0 1  2   0 1  9   0 1
 250  .654344E-04 .161292E-03    10.15  .144157E-02  99.86 4 11  44 1  1   0 1  6   0 1  8   0 1
 251 -.374221E-05 .320929E-05    83.88  .541297E-19 100.00 4 11  44 1  1   0 1  6   0 1  9   0 1
 252  .186453E-05 .282782E-05    26.82  .224148E-06 100.00 4 11  44 1  1   0 1  6   1 1  9   0 1
 253 -.558520E-04 .654500E-04    44.92  .206704E-10 100.00 3 11  44 1  1   0 1  8   0 2
 254 -.394118E-07 .802428E-07    14.88  .114610E-03  99.99 3 11  44 1  1   0 1  9   0 2
 255 -.421222E-04 .665349E-04    24.72  .663171E-06 100.00 3 11  44 1  1   0 2  6   1 1
 256  .337567E-04 .764677E-04    12.02  .526224E-03  99.95 3 11  44 1  1   0 2  8   0 1
 257  .190776E-05 .252416E-05    35.24  .293219E-08 100.00 3 11  44 1  1   0 2  9   0 1
 258 -.358608E-02 .102526E-01     7.55  .601282E-02  99.40 2 11  44 1  1  24 1
 259 -.173193E-04 .249547E-04    29.71  .502581E-07 100.00 4 11  44 1  1  24 1  2   0 1  6   0 1
 260  .561080E-04 .130997E-03    11.32  .768554E-03  99.92 4 11  44 1  1  24 1  6   0 1  8  24 1
 261  .944247E-03 .290432E-02     6.52  .106662E-01  98.93 3 11  44 1  1  24 1  6   1 1
 262 -.177752E-05 .519484E-05     7.22  .720174E-02  99.28 4 11  44 1  1  24 1  6   1 1  9   0 1
 263 -.885878E-06 .131630E-05    27.94  .125489E-06 100.00 4 11  44 1  1  24 1  8  24 1  9   0 1
 264  .355887E-03 .653925E-03    18.27  .191862E-04 100.00 2 11  44 1  1  24 2
 265  .132607E-04 .208700E-04    24.90  .603781E-06 100.00 4 11  44 1  2   0 1  6   0 1  6   1 1
 266 -.227072E-03 .574999E-03     9.62  .192518E-02  99.81 3 11  44 1  2   0 1  6   1 1
 267  .733272E-06 .107654E-05    28.62  .883576E-07 100.00 4 11  44 1  2   0 1  6   1 1  9   0 1
 268  .855452E-05 .147405E-04    20.78  .517139E-05 100.00 3 11  44 1  2   0 1  8   0 2
 269 -.199676E-06 .335612E-06    21.84  .297560E-05 100.00 4 11  44 1  2   0 1  8  24 1  9   0 1
 270  .655017E-04 .149257E-03    11.88  .567640E-03  99.94 4 11  44 1  6   0 1  8   0 1  8  24 1
 271 -.483776E-04 .101225E-03    14.09  .174423E-03  99.98 3 11  44 1  6   0 1  8   0 2
 272  .592207E-03 .218297E-02     4.54  .331167E-01  96.69 3 11  44 1  6   0 1  8  24 1
 273  .107343E-03 .100963E-03    69.73  .692780E-16 100.00 3 11  44 1  6   0 2  8   0 1
 274 -.166152E-05 .354021E-05    13.59  .227835E-03  99.98 3 11  44 1  6   0 2  9   0 1
 275  .276147E-04 .672449E-04    10.40  .125872E-02  99.87 2 11  44 1  6   0 3
 276 -.182691E-04 .434502E-04    10.91  .959269E-03  99.90 3 11  44 1  6   1 1  8  24 2
 277 -.127614E-05 .180514E-05    30.83  .282738E-07 100.00 3 11  44 1  6   1 2  9   0 1
 278 -.277408E-01 .281839E-01    59.76  .108486E-13 100.00 2 11  44 1  8   0 1
 279  .189298E-02 .266588E-02    31.10  .245623E-07 100.00 3 11  44 1  8   0 1  8  24 1
 280 -.735843E-05 .623911E-05    85.81  .204061E-19 100.00 4 11  44 1  8   0 1  8  24 1  9   0 1
 281  .781959E-04 .694973E-04    78.10  .100477E-17 100.00 3 11  44 1  8   0 1  9   0 1
 282  .585290E-04 .618343E-04    55.27  .106379E-12 100.00 3 11  44 1  8   0 2  8  24 1
 283 -.406323E-05 .141303E-04     5.10  .239184E-01  97.61 2 11  44 1  8   0 3
 284  .532521E-06 .575183E-06    52.88  .359191E-12 100.00 3 11  44 1  8  24 2  9   0 1
 285 -.174992E-02 .419796E-02    10.72  .106093E-02  99.89 2 11  44 1  9   0 1
 286  .307201E-05 .748572E-05    10.39  .126828E-02  99.87 2 11  44 1  9   0 2
 287 -.142405E-08 .443371E-08     6.36  .116498E-01  98.84 2 11  44 1  9   0 3
 288  .440823E-03 .408908E-03    71.69  .256499E-16 100.00 1 11  44 2
 289 -.704010E-05 .855923E-05    41.73  .105320E-09 100.00 3 11  44 2  1   0 1  6   0 1
 290 -.337642E-05 .368500E-05    51.79  .624599E-12 100.00 2 11  44 2  1   0 2
 291  .242155E-07 .377367E-07    25.40  .466817E-06 100.00 3 11  44 2  2   0 1  9   0 1
 292  .256647E-05 .781213E-05     6.66  .987452E-02  99.01 3 11  44 2  6   0 1  6   1 1
 293  .772650E-07 .143763E-06    17.82  .243349E-04 100.00 3 11  44 2  8   0 1  9   0 1
 294 -.247753E-05 .410279E-05    22.49  .211195E-05 100.00 2 11  44 2  8  24 2
 295  .480438E-07 .796246E-07    22.46  .215205E-05 100.00 2 11  44 3  2   0 1
 296 -.248386E-06 .506348E-06    14.84  .116883E-03  99.99 2 11  44 3  6   0 1
 297 -.274512E-08 .296392E-08    52.92  .351961E-12 100.00 1 11  44 4
 298 -.157148E-02 .313530E-02    15.50  .827115E-04  99.99 3  1   0 1  1  24 1  2   0 1
 299  .575177E-05 .691546E-05    42.67  .651466E-10 100.00 4  1   0 1  1  24 1  2   0 1  9   0 1
 300  .793712E-03 .105861E-02    34.68  .390913E-08 100.00 4  1   0 1  1  24 1  6   0 1  6   1 1
 301 -.428105E-03 .816822E-03    16.94  .385246E-04 100.00 4  1   0 1  1  24 1  6   0 1  8   0 1
 302  .183585E-03 .412042E-03    12.25  .466614E-03  99.95 4  1   0 1  1  24 1  6   0 1  8  24 1
 303 -.301872E-04 .310850E-04    58.18  .242929E-13 100.00 4  1   0 1  1  24 1  6   0 1  9   0 1
 304 -.616727E-03 .864856E-03    31.37  .214246E-07 100.00 3  1   0 1  1  24 1  6   0 2
 305  .136060E-03 .442767E-03     5.83  .158016E-01  98.42 4  1   0 1  1  24 1  6   1 1  8   0 1
 306  .151524E-04 .215973E-04    30.36  .359440E-07 100.00 4  1   0 1  1  24 1  6   1 1  9   0 1
 307 -.126842E-03 .418592E-03     5.66  .173168E-01  98.27 4  1   0 1  1  24 1  8   0 1  8  24 1
 308  .162144E-03 .214426E-03    35.27  .287997E-08 100.00 3  1   0 1  1  24 2  8  24 1
 309  .186989E-03 .112973E-03   169.00  .136431E-37 100.00 2  1   0 1  1  24 3
 310  .115273E-01 .246957E-01    13.44  .246480E-03  99.98 2  1   0 1  2   0 1
 311  .266183E-02 .376737E-02    30.80  .287847E-07 100.00 3  1   0 1  2   0 1  6   0 1
 312 -.909431E-04 .110092E-03    42.09  .875617E-10 100.00 4  1   0 1  2   0 1  6   0 1  6   1 1
 313 -.920449E-05 .790616E-05    83.61  .618596E-19 100.00 4  1   0 1  2   0 1  6   0 1  9   0 1
 314  .653249E-04 .597085E-04    73.84  .865773E-17 100.00 3  1   0 1  2   0 1  6   0 2
 315 -.185311E-02 .261851E-02    30.90  .273390E-07 100.00 3  1   0 1  2   0 1  6   1 1
 316 -.654561E-04 .964376E-04    28.42  .980346E-07 100.00 4  1   0 1  2   0 1  6   1 1  8   0 1
 317  .490679E-05 .490352E-05    61.77  .391804E-14 100.00 4  1   0 1  2   0 1  6   1 1  9   0 1
 318  .135081E-03 .106760E-03    98.76  .296254E-22 100.00 3  1   0 1  2   0 1  6   1 2
 319 -.296908E-02 .172311E-02   183.15  .112712E-40 100.00 3  1   0 1  2   0 1  8   0 1
 320  .691268E-05 .402081E-05   182.33  .170094E-40 100.00 4  1   0 1  2   0 1  8   0 1  9   0 1
 321  .636849E-03 .202625E-02     6.09  .135691E-01  98.64 3  1   0 1  2   0 1  8  24 1
 322 -.119089E-05 .419776E-05     4.96  .258716E-01  97.41 4  1   0 1  2   0 1  8  24 1  9   0 1
 323 -.520371E-04 .528510E-04    59.80  .106352E-13 100.00 3  1   0 1  2   0 1  9   0 1
 324  .324812E-06 .623204E-06    16.76  .425332E-04 100.00 3  1   0 1  2   0 2  9   0 1
 325  .331493E+00 .952275E-01   747.51  .110524E-162 100.00 2  1   0 1  6   0 1
 326  .259751E-03 .222039E-03    84.42  .410837E-19 100.00 4  1   0 1  6   0 1  6   1 1  8   0 1
 327 -.100955E-03 .188574E-03    17.68  .261670E-04 100.00 3  1   0 1  6   0 1  6   1 2
 328 -.173429E-04 .190746E-04    51.00  .935269E-12 100.00 4  1   0 1  6   0 1  8   0 1  9   0 1
 329 -.123348E-03 .131337E-03    54.41  .164484E-12 100.00 3  1   0 1  6   0 1  8   0 2
 330 -.137647E-01 .129777E-01    69.40  .820837E-16 100.00 3  1   0 1  6   0 1  8  24 1
 331  .249513E-04 .241022E-04    66.11  .433565E-15 100.00 4  1   0 1  6   0 1  8  24 1  9   0 1
 332  .745211E-02 .111432E-01    27.59  .150486E-06 100.00 2  1   0 1  6   0 2
 333 -.172001E-03 .297802E-03    20.58  .573530E-05 100.00 3  1   0 1  6   0 2  8  24 1
 334 -.124423E+00 .170341E+00    32.91  .968233E-08 100.00 2  1   0 1  6   1 1
 335  .341092E-02 .513755E-02    27.19  .184846E-06 100.00 3  1   0 1  6   1 1  8   0 1
 336  .160639E-01 .138974E-01    82.42  .112953E-18 100.00 3  1   0 1  6   1 1  8  24 1
 337 -.266862E-04 .239291E-04    76.72  .201316E-17 100.00 4  1   0 1  6   1 1  8  24 1  9   0 1
 338 -.222690E-03 .238725E-03    53.68  .238803E-12 100.00 3  1   0 1  6   1 1  8  24 2
 339  .156035E-03 .310858E-03    15.54  .807583E-04  99.99 3  1   0 1  6   1 1  9   0 1
 340  .455129E-02 .119519E-01     8.95  .278300E-02  99.72 2  1   0 1  6   1 2
 341 -.753532E-05 .193538E-04     9.35  .222926E-02  99.78 3  1   0 1  6   1 2  9   0 1
 342 -.367961E-01 .110335E+00     6.86  .881314E-02  99.12 2  1   0 1  8   0 1
 343  .367891E-05 .125904E-04     5.27  .217374E-01  97.83 4  1   0 1  8   0 1  8  24 1  9   0 1
 344 -.881323E-04 .157460E-03    19.33  .110410E-04 100.00 3  1   0 1  8   0 1  8  24 2
 345 -.186889E-03 .247730E-03    35.11  .313479E-08 100.00 3  1   0 1  8   0 1  9   0 1
 346 -.621718E-01 .844678E-01    33.42  .746008E-08 100.00 2  1   0 1  8  24 1
 347  .154972E-03 .209229E-03    33.84  .600449E-08 100.00 3  1   0 1  8  24 1  9   0 1
 348 -.210838E-01 .155088E-01   114.01  .136302E-25 100.00 2  1   0 1  9   0 1
 349  .365520E-04 .272026E-04   111.38  .512628E-25 100.00 2  1   0 1  9   0 2
 350 -.235087E-07 .167349E-07   121.73  .279275E-27 100.00 2  1   0 1  9   0 3
 351  .574808E-01 .127208E+00    12.60  .386943E-03  99.96 1  1   0 2
 352  .516178E-03 .716777E-03    31.99  .155530E-07 100.00 3  1   0 2  1  24 1  6   0 1
 353 -.417268E-03 .416689E-03    61.86  .374412E-14 100.00 3  1   0 2  1  24 1  8  24 1
 354 -.634232E-03 .348537E-03   204.26  .286577E-45 100.00 2  1   0 2  1  24 2
 355  .113606E-03 .109380E-03    66.55  .347694E-15 100.00 3  1   0 2  2   0 1  6   0 1
 356 -.213540E-04 .203942E-04    67.63  .200721E-15 100.00 2  1   0 2  2   0 2
 357 -.100247E-01 .409202E-02   370.22  .279049E-81 100.00 2  1   0 2  6   0 1
 358 -.135402E-03 .128322E-03    68.68  .117763E-15 100.00 3  1   0 2  6   0 1  6   1 1
 359  .471510E-03 .217574E-03   289.71  .787079E-64 100.00 3  1   0 2  6   0 1  8   0 1
 360 -.152327E-03 .175547E-03    46.45  .949052E-11 100.00 2  1   0 2  6   0 2
 361 -.191002E-03 .150773E-03    99.00  .262390E-22 100.00 3  1   0 2  6   1 1  8   0 1
 362  .924694E-04 .293842E-03     6.11  .134525E-01  98.65 3  1   0 2  6   1 1  8  24 1
 363  .535357E-02 .630871E-02    44.42  .266689E-10 100.00 2  1   0 2  8   0 1
 364  .809109E-04 .951060E-04    44.65  .237767E-10 100.00 2  1   0 2  8  24 2
 365  .191350E-06 .397381E-06    14.30  .155714E-03  99.98 2  1   0 2  9   0 2
 366 -.100825E-01 .694531E-02   130.00  .436588E-29 100.00 1  1   0 3
 367  .665243E-03 .255417E-03   418.46  .101283E-91 100.00 2  1   0 3  1  24 1
 368 -.293099E-04 .268426E-04    73.55  .100211E-16 100.00 2  1   0 3  2   0 1
 369 -.719575E-04 .130887E-03    18.64  .157714E-04 100.00 2  1   0 3  8   0 1
 370  .112355E-03 .133312E-03    43.82  .363330E-10 100.00 2  1   0 3  8  24 1
 371 -.314902E-05 .114469E-04     4.67  .307249E-01  96.93 2  1   0 3  9   0 1
 372  .140604E-03 .104472E-03   111.74  .427753E-25 100.00 1  1   0 4
 373 -.299316E-02 .366068E-02    41.24  .135453E-09 100.00 3  1  24 1  2   0 1  6   0 1
 374  .167654E-03 .154930E-03    72.24  .194842E-16 100.00 4  1  24 1  2   0 1  6   0 1  8   0 1
 375  .667112E-05 .768265E-05    46.51  .917962E-11 100.00 4  1  24 1  2   0 1  6   0 1  9   0 1
 376  .159479E-02 .228472E-02    30.06  .421142E-07 100.00 3  1  24 1  2   0 1  6   1 1
 377  .169753E-02 .241286E-02    30.53  .329487E-07 100.00 3  1  24 1  2   0 1  8   0 1
 378 -.443527E-05 .645526E-05    29.12  .682228E-07 100.00 4  1  24 1  2   0 1  8   0 1  9   0 1
 379 -.114790E-04 .130277E-04    47.89  .454279E-11 100.00 3  1  24 1  2   0 2  8   0 1
 380 -.216972E-06 .465082E-06    13.43  .248368E-03  99.98 3  1  24 1  2   0 2  9   0 1
 381  .102311E-01 .261312E-01     9.46  .210517E-02  99.79 3  1  24 1  6   0 1  6   1 1
 382 -.911448E-03 .777423E-03    84.79  .341017E-19 100.00 4  1  24 1  6   0 1  6   1 1  8   0 1
 383 -.152123E-04 .485932E-04     6.05  .139442E-01  98.61 4  1  24 1  6   0 1  6   1 1  9   0 1
 384 -.177816E-03 .556185E-03     6.31  .120406E-01  98.80 4  1  24 1  6   0 1  8   0 1  8  24 1
 385  .301225E-04 .403682E-04    34.35  .463099E-08 100.00 4  1  24 1  6   0 1  8   0 1  9   0 1
 386 -.285963E-03 .505757E-03    19.72  .897507E-05 100.00 2  1  24 1  6   0 3
 387 -.469714E-01 .868003E-01    18.06  .213863E-04 100.00 2  1  24 1  6   1 1
 388  .142568E-03 .358641E-03     9.75  .179593E-02  99.82 3  1  24 1  6   1 2  8   0 1
 389  .185004E-03 .322524E-03    20.30  .664121E-05 100.00 3  1  24 1  6   1 2  8  24 1
 390 -.301178E-04 .277119E-04    72.86  .141788E-16 100.00 3  1  24 1  6   1 2  9   0 1
 391 -.173070E-03 .409597E-03    11.01  .905002E-03  99.91 2  1  24 1  6   1 3
 392  .224437E-06 .304674E-06    33.47  .725213E-08 100.00 3  1  24 1  8   0 1  9   0 2
 393 -.745214E-04 .147328E-03    15.78  .711186E-04  99.99 3  1  24 1  8   0 2  8  24 1
 394  .296973E-07 .107206E-06     4.73  .295826E-01  97.04 3  1  24 1  8  24 1  9   0 2
 395  .541091E-03 .136054E-02     9.76  .178724E-02  99.82 2  1  24 1  8  24 2
 396  .209903E-02 .274934E-02    35.96  .202817E-08 100.00 2  1  24 1  9   0 1
 397  .147496E+00 .146746E+00    62.32  .296419E-14 100.00 1  1  24 2
 398 -.403446E-03 .468920E-03    45.66  .141556E-10 100.00 2  1  24 2  2   0 1
 399 -.134331E-03 .137823E-03    58.60  .195747E-13 100.00 3  1  24 2  2   0 1  6   1 1
 400  .510461E-04 .104820E-03    14.63  .130964E-03  99.99 3  1  24 2  2   0 1  8   0 1
 401  .448612E-05 .109665E-04    10.32  .131456E-02  99.87 2  1  24 2  2   0 2
 402 -.412584E-03 .837581E-03    14.97  .109448E-03  99.99 3  1  24 2  6   0 1  8   0 1
 403  .477951E-05 .853440E-05    19.35  .109151E-04 100.00 3  1  24 2  6   0 1  9   0 1
 404  .202879E-03 .577810E-03     7.61  .582210E-02  99.42 2  1  24 2  6   0 2
 405  .309398E-03 .511626E-03    22.56  .204181E-05 100.00 2  1  24 2  6   1 2
 406  .209262E-02 .650471E-02     6.38  .115151E-01  98.85 2  1  24 2  8   0 1
 407 -.257899E-04 .451062E-04    20.17  .711164E-05 100.00 2  1  24 2  8  24 2
 408 -.461754E-03 .427565E-03    71.95  .225492E-16 100.00 2  1  24 2  9   0 1
 409  .269409E-06 .333508E-06    40.25  .224420E-09 100.00 2  1  24 2  9   0 2
 410 -.970315E-04 .186039E-03    16.78  .420044E-04 100.00 2  1  24 3  8   0 1
 411  .102114E-02 .285545E-02     7.89  .497525E-02  99.50 3  2   0 1  6   0 1  6   1 1
 412  .100984E-03 .191644E-03    17.13  .349865E-04 100.00 4  2   0 1  6   0 1  6   1 1  8  24 1
 413  .517689E-03 .759196E-03    28.68  .855230E-07 100.00 3  2   0 1  6   0 1  8  24 1
 414 -.242899E-04 .483892E-04    15.54  .807100E-04  99.99 3  2   0 1  6   0 2  8   0 1
 415 -.372099E-04 .724000E-04    16.29  .542884E-04  99.99 4  2   0 1  6   1 1  8   0 1  8  24 1
 416  .184488E-04 .246421E-04    34.58  .411834E-08 100.00 3  2   0 1  6   1 1  8   0 2
 417 -.331130E-05 .333311E-05    60.88  .614482E-14 100.00 3  2   0 1  6   1 2  9   0 1
 418  .112182E-03 .346158E-03     6.48  .109191E-01  98.91 2  2   0 1  8   0 2
 419 -.286555E-05 .578444E-05    15.14  .999884E-04  99.99 2  2   0 1  8   0 3
 420  .816926E-04 .245320E-03     6.84  .891273E-02  99.11 2  2   0 2  6   1 1
 421 -.628693E-05 .242204E-04     4.16  .414835E-01  95.85 3  2   0 2  6   1 1  8  24 1
 422 -.440222E-06 .105310E-05    10.78  .102687E-02  99.90 2  2   0 3  8  24 1
 423  .967363E-08 .182212E-07    17.39  .305309E-04 100.00 2  2   0 3  9   0 1
 424  .504391E-07 .979625E-07    16.35  .526178E-04  99.99 1  2   0 4
 425  .174454E-03 .370562E-03    13.67  .217839E-03  99.98 4  6   0 1  6   1 1  8   0 1  8  24 1
 426 -.328039E-02 .961218E-02     7.18  .735493E-02  99.26 2  6   0 1  6   1 2
 427 -.236832E-03 .407731E-03    20.81  .507370E-05 100.00 3  6   0 1  6   1 2  8  24 1
 428  .494750E-04 .971611E-04    15.99  .635799E-04  99.99 2  6   0 1  6   1 3
 429  .105434E-01 .122183E-01    45.93  .123302E-10 100.00 3  6   0 1  8   0 1  8  24 1
 430 -.186468E-04 .317422E-04    21.29  .395962E-05 100.00 4  6   0 1  8   0 1  8  24 1  9   0 1
 431 -.137369E-06 .512518E-06     4.43  .352847E-01  96.47 3  6   0 1  8   0 1  9   0 2
 432  .357776E-04 .344016E-04    66.72  .318237E-15 100.00 2  6   0 1  8   0 3
 433 -.389970E+00 .337893E+00    82.17  .128295E-18 100.00 1  6   0 2
 434 -.453746E-02 .120007E-01     8.82  .298243E-02  99.70 2  6   0 2  6   1 1
 435  .153655E-04 .162099E-04    55.43  .981130E-13 100.00 3  6   0 2  6   1 1  9   0 1
 436  .134853E-04 .116145E-04    83.16  .776624E-19 100.00 3  6   0 2  8   0 1  9   0 1
 437 -.990139E-04 .842160E-04    85.27  .267536E-19 100.00 2  6   0 2  8   0 2
 438  .802240E-03 .114368E-02    30.35  .361523E-07 100.00 2  6   0 2  9   0 1
 439 -.722172E-06 .100384E-05    31.93  .160762E-07 100.00 2  6   0 2  9   0 2
 440 -.307391E-04 .113027E-03     4.56  .326811E-01  96.73 2  6   0 3  6   1 1
 441 -.107641E-01 .101165E-01    69.84  .655810E-16 100.00 3  6   1 1  8   0 1  8  24 1
 442  .140569E-04 .233793E-04    22.30  .233620E-05 100.00 4  6   1 1  8   0 1  8  24 1  9   0 1
 443  .144436E-03 .186839E-03    36.87  .127270E-08 100.00 3  6   1 1  8   0 1  8  24 2
 444  .131024E-04 .306865E-04    11.25  .798358E-03  99.92 2  6   1 1  8  24 3
 445 -.107300E-01 .274901E-01     9.40  .217290E-02  99.78 2  6   1 1  9   0 1
 446  .208220E-04 .505640E-04    10.46  .122005E-02  99.88 2  6   1 1  9   0 2
 447 -.139669E-07 .305312E-07    12.91  .327160E-03  99.97 2  6   1 1  9   0 3
 448 -.222489E+00 .254971E+00    46.97  .726652E-11 100.00 1  6   1 2
 449  .738514E-03 .974734E-03    35.41  .268263E-08 100.00 2  6   1 2  9   0 1
 450 -.486604E-06 .959013E-06    15.88  .674973E-04  99.99 2  6   1 2  9   0 2
 451  .281456E-05 .497381E-05    19.75  .882537E-05 100.00 2  6   1 3  9   0 1
 452 -.459212E-04 .112095E-03    10.35  .129354E-02  99.87 3  8   0 1  8  24 1  9   0 1
 453  .257919E-04 .333638E-04    36.86  .127302E-08 100.00 2  8   0 1  8  24 3
 454  .733404E-02 .234875E-02   601.46  .308849E-131 100.00 2  8   0 1  9   0 1
 455 -.135383E-04 .519917E-05   418.27  .111607E-91 100.00 2  8   0 1  9   0 2
 456  .205006E-02 .181206E-02    78.96  .650431E-18 100.00 2  8   0 2  8  24 1
 457 -.380847E-04 .705557E-04    17.97  .224303E-04 100.00 2  8   0 2  8  24 2
 458 -.221535E-03 .871006E-04   399.06  .159899E-87 100.00 2  8   0 2  9   0 1
 459  .258482E-06 .172647E-06   138.27  .682717E-31 100.00 2  8   0 2  9   0 2
 460  .164518E-05 .192985E-05    44.83  .216543E-10 100.00 2  8   0 3  9   0 1
 461 -.363093E-05 .620115E-05    21.15  .425724E-05 100.00 1  8   0 4
 462 -.192487E-08 .238066E-08    40.33  .216087E-09 100.00 2  8  24 1  9   0 3
 463  .398562E-02 .150415E-01     4.33  .374244E-01  96.26 1  8  24 2
 464 -.302143E-03 .499134E-03    22.60  .199472E-05 100.00 1  8  24 3
 465  .261260E-06 .687390E-06     8.91  .283528E-02  99.72 2  8  24 3  9   0 1
