   1 -.496849E+00 .579530E+00     7.46  .629983E-02  99.37 1  0   0 1
   2  .131234E+01 .454358E-01  8470.55  .000000E+00 100.00 1 11   0 1
   3 -.411452E+00 .308319E-01  1808.22  .000000E+00 100.00 1 11   1 1
   4  .141901E-01 .644649E-02    49.20  .233737E-11 100.00 1 11   5 1
   5  .204115E-01 .435739E-02   222.80  .267462E-49 100.00 1 11  10 1
   6 -.212429E-01 .513372E-02   173.85  .119530E-38 100.00 1 11  25 1
   7 -.303337E-02 .385255E-02     6.29  .121130E-01  98.79 1 11  42 1
   8  .163408E-01 .619166E-02    70.72  .419631E-16 100.00 1 11  46 1
   9 -.121728E-01 .526482E-02    54.28  .176000E-12 100.00 1 11  48 1
  10  .122537E-01 .830842E-02    22.09  .261248E-05 100.00 1 11  71 1
  11 -.104468E-01 .830639E-02    16.06  .614182E-04  99.99 1 11  72 1
  12  .100294E-01 .415481E-02    59.16  .147029E-13 100.00 1 11  94 1
  13 -.826263E-02 .414952E-02    40.26  .223935E-09 100.00 1 11  97 1
  14  .170603E-01 .828696E-02    43.03  .542328E-10 100.00 1 11 119 1
  15 -.153842E-01 .828798E-02    34.98  .334070E-08 100.00 1 11 120 1
  16  .154419E-01 .827705E-02    35.34  .278286E-08 100.00 1 11 143 1
  17 -.138237E-01 .827867E-02    28.31  .103679E-06 100.00 1 11 144 1
  18  .990195E-02 .827966E-02    14.52  .138650E-03  99.99 1 11 167 1
  19 -.848557E-02 .827902E-02    10.67  .109155E-02  99.89 1 11 168 1
  20  .773053E-02 .828294E-02     8.84  .294112E-02  99.71 1 11 191 1
  21 -.895317E-02 .840110E-02    11.53  .684577E-03  99.93 1 11 192 1
  22  .199958E-02 .276385E-02     5.31  .211517E-01  97.88 1 11 204 1
  23  .122305E-01 .853346E-02    20.86  .495787E-05 100.00 1 11 215 1
  24 -.127213E-01 .840141E-02    23.28  .140406E-05 100.00 1 11 216 1
  25  .101110E-01 .523758E-02    37.84  .772578E-09 100.00 1 11 238 1
  26 -.985615E-02 .523853E-02    35.94  .204257E-08 100.00 1 11 240 1
  27  .358740E-02 .364356E-02     9.84  .170566E-02  99.83 1 11 262 1
  28 -.304966E-02 .364190E-02     7.12  .762599E-02  99.24 1 11 266 1
  29  .420013E-02 .416912E-02    10.31  .132730E-02  99.87 1 11 286 1
  30 -.397001E-02 .416323E-02     9.23  .237806E-02  99.76 1 11 289 1
  31  .666069E-02 .831871E-02     6.51  .107329E-01  98.93 1 11 311 1
  32 -.585580E-02 .834471E-02     5.00  .253517E-01  97.46 1 11 312 1
  33 -.267312E-02 .422713E-02     4.06  .439065E-01  95.61 1 11 331 1
  34  .672582E-02 .659197E-02    10.57  .114997E-02  99.89 1 11 334 1
  35 -.391240E-02 .528175E-02     5.57  .182616E-01  98.17 1 11 336 1
  36  .807391E-02 .838931E-02     9.40  .216558E-02  99.78 1 11 359 1
  37 -.792745E-02 .833657E-02     9.18  .244591E-02  99.76 1 11 360 1
  38  .125157E-02 .183913E-02     4.70  .301282E-01  96.99 1 11 438 1
  39 -.147098E+00 .322810E-01   210.83  .106890E-46 100.00 1  1   3 1
  40  .265961E-01 .260429E-01    10.59  .113794E-02  99.89 1  1  10 1
  41 -.336814E-01 .459427E-01     5.46  .194920E-01  98.05 1  1  15 1
  42  .316042E-01 .447176E-01     5.07  .243241E-01  97.57 1  1  16 1
  43  .250239E-01 .152248E-01    27.43  .163404E-06 100.00 1  2   0 1
  44 -.212973E-02 .182251E-02    13.87  .196581E-03  99.98 1  2   3 1
  45  .337387E-02 .170072E-02    39.96  .261142E-09 100.00 1  2   5 1
  46  .672940E-03 .525969E-03    16.62  .457052E-04 100.00 1  3   0 1
  47 -.381706E-01 .212518E-01    32.76  .104971E-07 100.00 1  5   0 1
  48  .350063E-01 .194427E-01    32.91  .966909E-08 100.00 1  5   1 1
  49 -.495071E+00 .276477E+00    32.56  .116303E-07 100.00 1  6   0 1
  50  .644662E-01 .205459E-01    99.96  .161483E-22 100.00 1  6   4 1
  51 -.615316E-01 .175996E-01   124.11  .845342E-28 100.00 1  6   7 1
  52 -.662062E-01 .197011E-01   114.66  .979307E-26 100.00 1  6  23 1
  53 -.466940E-01 .195150E-01    58.13  .248601E-13 100.00 1  6  24 1
  54  .290109E+00 .148405E+00    38.80  .472182E-09 100.00 1  8   0 1
  55 -.614978E-01 .266169E-01    54.20  .182944E-12 100.00 1  8   1 1
  56 -.221552E-01 .127533E-01    30.64  .311468E-07 100.00 1  8   8 1
  57 -.170610E-01 .122952E-01    19.55  .981509E-05 100.00 1  8  15 1
  58 -.367106E-01 .168204E-01    48.36  .357246E-11 100.00 1  8  22 1
  59  .227132E-01 .158960E-01    20.73  .529836E-05 100.00 1  8  24 1
  60 -.111354E-02 .145445E-02     5.95  .147074E-01  98.53 1  9   3 1
  61  .225050E-02 .865988E-03    68.57  .124543E-15 100.00 1  9  19 1
  62 -.101292E+00 .558661E-01    33.38  .761852E-08 100.00 1 13   0 1
  63  .471041E-01 .558248E-01     7.23  .717543E-02  99.28 1 14   0 1
  64 -.447227E-04 .277227E-04    26.42  .274887E-06 100.00 3 11   0 1 11   1 1  1   0 1
  65 -.261106E-03 .574928E-04   209.42  .216503E-46 100.00 3 11   0 1 11   1 1  2   0 1
  66  .100192E-02 .207770E-03   236.11  .341573E-52 100.00 3 11   0 1 11   1 1  6   0 1
  67 -.754422E-03 .160504E-03   224.32  .124634E-49 100.00 3 11   0 1 11   1 1  6   1 1
  68  .760004E-04 .246321E-04    96.66  .853189E-22 100.00 3 11   0 1 11   1 1  6   2 1
  69  .222269E-03 .870150E-04    66.25  .404094E-15 100.00 3 11   0 1 11   1 1  8   0 1
  70 -.132981E-03 .364523E-04   135.13  .331700E-30 100.00 2 11   0 1 11   1 2
  71  .320392E-04 .258477E-04    15.60  .783233E-04  99.99 3 11   0 1 11   2 1  1   0 1
  72  .258825E-04 .344960E-04     5.72  .168144E-01  98.32 3 11   0 1 11   2 1  2   0 1
  73 -.141601E-03 .893628E-04    25.49  .445030E-06 100.00 3 11   0 1 11   2 1  6   0 1
  74 -.102323E-04 .570638E-05    32.65  .110981E-07 100.00 3 11   0 1 11   2 1  9   0 1
  75  .101148E-04 .594135E-05    29.43  .582475E-07 100.00 3 11   0 1 11   2 1  9   1 1
  76 -.331200E-04 .323226E-04    10.66  .109497E-02  99.89 3 11   0 1 11  22 1  6   2 1
  77  .110879E-03 .453282E-04    60.75  .656024E-14 100.00 3 11   0 1 11  22 1  8   0 1
  78 -.496038E-03 .336104E-03    22.12  .257238E-05 100.00 3 11   0 1  1   0 1  1  24 1
  79  .212979E-04 .211323E-04    10.31  .132149E-02  99.87 3 11   0 1  1   0 1  2   0 1
  80 -.127153E-03 .153616E-03     6.96  .835326E-02  99.16 3 11   0 1  1   0 1  6   0 1
  81 -.367191E-03 .168759E-03    48.07  .415271E-11 100.00 3 11   0 1  1   0 1  8   0 1
  82  .405829E-04 .269759E-04    22.98  .164055E-05 100.00 3 11   0 1  1   0 1  9   0 1
  83 -.443133E-04 .272425E-04    26.86  .218819E-06 100.00 3 11   0 1  1   0 1  9   1 1
  84 -.317927E-04 .102463E-04    97.75  .491146E-22 100.00 3 11   0 1  1  24 1  9   1 1
  85  .636148E-03 .221695E-03    83.60  .621497E-19 100.00 2 11   0 1  1  24 2
  86 -.496316E-04 .292321E-04    29.27  .632080E-07 100.00 3 11   0 1  2   0 1  6   0 1
  87  .166224E-03 .597755E-04    78.52  .812630E-18 100.00 3 11   0 1  2   0 1  6   2 1
  88  .244168E-05 .288156E-05     7.29  .693507E-02  99.31 2 11   0 1  2   0 2
  89 -.524287E-04 .357529E-04    21.83  .297899E-05 100.00 3 11   0 1  6   1 1  9   0 1
  90  .687791E-04 .368135E-04    35.44  .264144E-08 100.00 3 11   0 1  6   1 1  9   1 1
  91 -.305212E-03 .931835E-04   108.93  .176031E-24 100.00 2 11   0 1  6   1 2
  92 -.465642E-04 .452964E-04    10.73  .105480E-02  99.89 3 11   0 1  8   0 1  9   0 1
  93  .473082E-04 .453301E-04    11.06  .883103E-03  99.91 3 11   0 1  8   0 1  9   1 1
  94 -.214285E-02 .547393E-03   155.60  .113661E-34 100.00 2 11   0 1  9   0 1
  95  .133624E-05 .809213E-06    27.69  .143146E-06 100.00 3 11   0 1  9   0 1  9   1 1
  96  .200063E-02 .545213E-03   136.71  .149415E-30 100.00 2 11   0 1  9   1 1
  97 -.127501E-05 .794452E-06    26.15  .316455E-06 100.00 2 11   0 1  9   1 2
  98  .127527E-03 .396210E-04   105.19  .115890E-23 100.00 2 11   0 2 11   1 1
  99  .111713E-03 .196004E-04   329.83  .157203E-72 100.00 2 11   0 2  2   0 1
 100 -.474691E-03 .935242E-04   261.57  .100803E-57 100.00 2 11   0 2  6   0 1
 101  .438934E-03 .835276E-04   280.38  .831237E-62 100.00 2 11   0 2  6   1 1
 102 -.659489E-04 .241866E-04    75.49  .375673E-17 100.00 2 11   0 2  6   2 1
 103 -.118089E-03 .451827E-04    69.36  .836953E-16 100.00 2 11   0 2  8   0 1
 104 -.401911E-04 .146836E-04    76.07  .280111E-17 100.00 1 11   0 3
 105  .267751E-02 .606721E-03   197.74  .752189E-44 100.00 2 11   1 1 11   2 1
 106 -.401014E-04 .353713E-04    13.05  .303415E-03  99.97 3 11   1 1 11   2 1  2   0 1
 107  .203324E-03 .108165E-03    35.88  .211235E-08 100.00 3 11   1 1 11   2 1  6   0 1
 108 -.480412E-05 .123606E-05   153.38  .346083E-34 100.00 2 11   1 1 11   2 2
 109 -.222167E-04 .809737E-05    76.43  .232900E-17 100.00 3 11   1 1 11  22 1  1  24 1
 110 -.723744E-04 .461426E-04    24.98  .580957E-06 100.00 3 11   1 1 11  22 1  8   0 1
 111 -.179338E-04 .185282E-04     9.51  .204165E-02  99.80 3 11   1 1 11  22 1  9   0 1
 112  .187220E-04 .185074E-04    10.39  .126742E-02  99.87 3 11   1 1 11  22 1  9   1 1
 113  .360014E-03 .333993E-03    11.80  .593586E-03  99.94 3 11   1 1  1   0 1  1  24 1
 114  .118772E-03 .135033E-03     7.86  .506863E-02  99.49 3 11   1 1  1   0 1  6   0 1
 115  .669190E-03 .217780E-03    95.87  .127120E-21 100.00 3 11   1 1  1   0 1  8   0 1
 116  .162392E-04 .830374E-05    38.83  .464539E-09 100.00 3 11   1 1  1   0 1  9   1 1
 117 -.358648E-03 .123808E-03    85.20  .276863E-19 100.00 2 11   1 1  1   0 2
 118 -.112215E-02 .381389E-03    87.90  .709531E-20 100.00 3 11   1 1  1  24 1  6   1 1
 119  .177753E-03 .914614E-04    38.35  .594522E-09 100.00 3 11   1 1  1  24 1  9   0 1
 120 -.150251E-03 .922402E-04    26.94  .210425E-06 100.00 3 11   1 1  1  24 1  9   1 1
 121 -.642367E-03 .214081E-03    91.42  .120195E-20 100.00 2 11   1 1  1  24 2
 122 -.183946E-03 .605278E-04    93.77  .365670E-21 100.00 3 11   1 1  2   0 1  6   2 1
 123  .192245E-03 .760139E-04    64.94  .783155E-15 100.00 3 11   1 1  6   0 1  6   2 1
 124  .134187E-01 .779517E-02    30.09  .414505E-07 100.00 2 11   1 1  6   1 1
 125 -.308308E-04 .132582E-04    54.91  .127968E-12 100.00 3 11   1 1  6   1 1  9   0 1
 126 -.160360E-03 .140807E-03    13.17  .284805E-03  99.97 3 11   1 1  6   2 1  8   0 1
 127  .904173E-04 .411859E-04    48.93  .267076E-11 100.00 3 11   1 1  8   0 1  9   0 1
 128 -.993058E-04 .410018E-04    59.56  .120238E-13 100.00 3 11   1 1  8   0 1  9   1 1
 129  .164968E-03 .441611E-04   141.69  .122707E-31 100.00 2 11   1 2  2   0 1
 130 -.598724E-03 .151924E-03   157.69  .396640E-35 100.00 2 11   1 2  6   0 1
 131  .294804E-03 .842123E-04   124.43  .718685E-28 100.00 2 11   1 2  6   1 1
 132 -.987564E-04 .496408E-04    40.19  .232462E-09 100.00 2 11   1 2  8   0 1
 133  .755996E-05 .512723E-05    22.07  .262823E-05 100.00 2 11   1 2  9   0 1
 134 -.887237E-05 .533189E-05    28.11  .114708E-06 100.00 2 11   1 2  9   1 1
 135  .485160E-04 .114795E-04   181.36  .276990E-40 100.00 1 11   1 3
 136  .302221E-04 .297035E-04    10.51  .118716E-02  99.88 3 11   2 1 11  22 1  6   2 1
 137  .225202E-04 .180069E-04    15.88  .675181E-04  99.99 3 11   2 1 11  22 1  9   0 1
 138 -.227044E-04 .179838E-04    16.18  .575616E-04  99.99 3 11   2 1 11  22 1  9   1 1
 139  .106294E-01 .224244E-02   228.13  .185011E-50 100.00 2 11   2 1  1   0 1
 140 -.460044E-03 .136050E-03   116.09  .476902E-26 100.00 3 11   2 1  1   0 1  8   0 1
 141 -.580077E-04 .272591E-04    45.98  .120504E-10 100.00 3 11   2 1  1   0 1  9   0 1
 142  .378594E-04 .276794E-04    19.00  .131232E-04 100.00 3 11   2 1  1   0 1  9   1 1
 143  .236288E-03 .118473E-03    40.39  .209474E-09 100.00 2 11   2 1  1   0 2
 144  .113106E-02 .376147E-03    91.81  .987316E-21 100.00 3 11   2 1  1  24 1  6   1 1
 145 -.799022E-04 .858990E-04     8.79  .303784E-02  99.70 3 11   2 1  1  24 1  9   0 1
 146  .854758E-04 .861472E-04    10.00  .156967E-02  99.84 3 11   2 1  1  24 1  9   1 1
 147  .322395E-04 .221589E-04    21.49  .355839E-05 100.00 3 11   2 1  2   0 1  6   1 1
 148 -.319086E-02 .286338E-02    12.61  .384217E-03  99.96 2 11   2 1  6   0 1
 149  .109921E-04 .524632E-05    44.57  .247047E-10 100.00 3 11   2 1  6   0 1  9   0 1
 150 -.248496E-03 .669580E-04   139.84  .309872E-31 100.00 2 11   2 1  6   0 2
 151 -.103665E-01 .776572E-02    18.09  .210640E-04 100.00 2 11   2 1  6   1 1
 152  .130695E-03 .441041E-04    89.16  .375044E-20 100.00 3 11   2 1  6   1 1  9   0 1
 153 -.120527E-03 .430490E-04    79.59  .472311E-18 100.00 3 11   2 1  6   1 1  9   1 1
 154  .393600E-03 .929195E-04   182.18  .183112E-40 100.00 2 11   2 1  6   1 2
 155  .190198E-03 .136267E-03    19.78  .869938E-05 100.00 3 11   2 1  6   2 1  8   0 1
 156 -.144373E-04 .176628E-04     6.78  .920141E-02  99.08 3 11   2 1  6   2 1  9   0 1
 157  .134565E-04 .176024E-04     5.93  .148551E-01  98.51 3 11   2 1  6   2 1  9   1 1
 158 -.139164E-03 .349882E-04   160.63  .908070E-36 100.00 2 11   2 1  6   2 2
 159  .339249E-02 .156188E-02    47.90  .452019E-11 100.00 2 11   2 1  8   0 1
 160 -.196541E-02 .508080E-03   151.93  .714552E-34 100.00 1 11   2 2
 161  .241618E-04 .162603E-04    22.42  .219648E-05 100.00 2 11   2 2  6   1 1
 162 -.452800E-04 .151889E-04    90.23  .218252E-20 100.00 2 11   2 2  8   0 1
 163 -.993247E-03 .106417E-02     8.85  .293984E-02  99.71 2 11  22 1  1   0 1
 164 -.121329E-03 .107711E-03    12.88  .331779E-03  99.97 3 11  22 1  1   0 1  6   1 1
 165  .251970E-03 .103206E-03    60.52  .738745E-14 100.00 3 11  22 1  1   0 1  6   2 1
 166  .242921E-03 .106655E-03    52.67  .398424E-12 100.00 3 11  22 1  1   0 1  8   0 1
 167  .768639E-05 .699635E-05    12.26  .464301E-03  99.95 3 11  22 1  1  24 1  2   0 1
 168 -.324302E-04 .194816E-04    28.14  .113431E-06 100.00 3 11  22 1  1  24 1  9   0 1
 169  .286842E-04 .193491E-04    22.31  .231994E-05 100.00 3 11  22 1  1  24 1  9   1 1
 170 -.608840E-05 .202121E-05    92.13  .838554E-21 100.00 3 11  22 1  6   0 1  9   1 1
 171  .985481E-04 .685375E-04    20.99  .462034E-05 100.00 2 11  22 1  6   0 2
 172  .259760E-05 .278270E-05     8.85  .293575E-02  99.71 3 11  22 1  6   1 1  9   1 1
 173 -.268367E-02 .129615E-02    43.53  .421210E-10 100.00 2 11  22 1  6   2 1
 174 -.564736E-05 .317850E-05    32.05  .150691E-07 100.00 3 11  22 1  8   0 1  9   1 1
 175  .165248E-02 .622195E-03    71.62  .266171E-16 100.00 2 11  22 1  9   0 1
 176 -.471486E-05 .296988E-05    25.59  .423283E-06 100.00 3 11  22 1  9   0 1  9   1 1
 177  .141450E-05 .143446E-05     9.87  .167810E-02  99.83 2 11  22 1  9   0 2
 178 -.140618E-02 .619954E-03    52.24  .497111E-12 100.00 2 11  22 1  9   1 1
 179  .316080E-05 .171230E-05    34.60  .407347E-08 100.00 2 11  22 1  9   1 2
 180 -.246157E-04 .921993E-05    72.37  .181629E-16 100.00 2 11  22 2  8   0 1
 181 -.272485E-06 .125228E-06    48.07  .414451E-11 100.00 1 11  22 3
 182  .425153E-03 .134084E-03   102.08  .554111E-23 100.00 3  1   0 1  1  24 1  2   0 1
 183 -.669319E-03 .582758E-03    13.39  .252658E-03  99.97 3  1   0 1  1  24 1  8   0 1
 184  .421376E-03 .171743E-03    61.12  .544374E-14 100.00 3  1   0 1  1  24 1  9   0 1
 185 -.459107E-03 .174605E-03    70.20  .546363E-16 100.00 3  1   0 1  1  24 1  9   1 1
 186  .581439E-03 .454093E-03    16.65  .450785E-04 100.00 2  1   0 1  1  24 2
 187  .200078E-01 .127225E-01    25.11  .542569E-06 100.00 2  1   0 1  6   0 1
 188  .542379E-04 .747821E-04     5.34  .208326E-01  97.92 3  1   0 1  6   0 1  9   0 1
 189 -.615519E-04 .720929E-04     7.40  .651927E-02  99.35 3  1   0 1  6   0 1  9   1 1
 190  .550535E-03 .272224E-03    41.53  .117051E-09 100.00 2  1   0 1  6   0 2
 191  .138892E-03 .103685E-03    18.22  .197141E-04 100.00 3  1   0 1  6   1 1  9   0 1
 192 -.140298E-03 .106829E-03    17.51  .285872E-04 100.00 3  1   0 1  6   1 1  9   1 1
 193 -.429226E-02 .364961E-02    14.04  .178726E-03  99.98 2  1   0 1  6   2 1
 194  .883698E-02 .907648E-02     9.62  .192061E-02  99.81 2  1   0 1  8   0 1
 195 -.538075E-04 .201721E-04    72.24  .194113E-16 100.00 3  1   0 1  8   0 1  9   1 1
 196 -.529112E-02 .139139E-02   146.83  .927854E-33 100.00 2  1   0 1  9   0 1
 197  .553843E-02 .141818E-02   154.85  .164891E-34 100.00 2  1   0 1  9   1 1
 198  .216668E-01 .580602E-02   141.40  .141901E-31 100.00 1  1   0 2
 199 -.191198E-03 .657012E-04    85.99  .186276E-19 100.00 2  1   0 2  2   0 1
 200 -.424665E-03 .121129E-03   124.80  .597441E-28 100.00 1  1   0 3
 201 -.416716E-02 .228927E-02    33.64  .665002E-08 100.00 2  1  24 1  2   0 1
 202  .763991E-04 .892977E-04     7.43  .640886E-02  99.36 3  1  24 1  2   0 1  6   2 1
 203  .515904E-05 .425121E-05    14.95  .110332E-03  99.99 3  1  24 1  2   0 1  9   0 1
 204 -.343761E-03 .494985E-03     4.90  .269049E-01  97.31 3  1  24 1  6   1 1  8   0 1
 205 -.468452E-03 .227817E-03    42.93  .571179E-10 100.00 3  1  24 1  8   0 1  9   0 1
 206  .532785E-03 .228592E-03    55.16  .112627E-12 100.00 3  1  24 1  8   0 1  9   1 1
 207  .276280E-02 .344140E-02     6.54  .105263E-01  98.95 1  1  24 2
 208 -.476199E-03 .257792E-03    34.65  .397376E-08 100.00 2  1  24 2  6   0 1
 209 -.742294E-03 .451357E-03    27.46  .160738E-06 100.00 2  1  24 2  8   0 1
 210 -.127577E-03 .931705E-04    19.04  .128395E-04 100.00 1  1  24 3
 211 -.712952E-02 .279239E-02    66.19  .416745E-15 100.00 2  2   0 1  6   0 1
 212 -.400054E-03 .182223E-03    48.94  .266655E-11 100.00 3  2   0 1  6   0 1  6   1 1
 213  .113975E-03 .871474E-04    17.37  .308537E-04 100.00 3  2   0 1  6   0 1  8   0 1
 214  .611453E-05 .633482E-05     9.46  .210139E-02  99.79 3  2   0 1  6   0 1  9   0 1
 215  .722723E-03 .185208E-03   154.61  .186437E-34 100.00 2  2   0 1  6   0 2
 216  .376858E-02 .297779E-02    16.26  .552138E-04  99.99 2  2   0 1  6   1 1
 217  .409679E-04 .268335E-04    23.67  .114783E-05 100.00 3  2   0 1  6   1 1  9   0 1
 218 -.470146E-04 .265674E-04    31.80  .171887E-07 100.00 3  2   0 1  6   1 1  9   1 1
 219 -.269500E-03 .123852E-03    48.08  .413821E-11 100.00 2  2   0 1  6   1 2
 220 -.478485E-04 .342158E-04    19.86  .836254E-05 100.00 2  2   0 1  9   0 1
 221 -.470146E-04 .231652E-04    41.82  .100645E-09 100.00 2  2   0 2  6   0 1
 222  .430470E-04 .238785E-04    33.00  .926575E-08 100.00 2  2   0 2  6   1 1
 223  .306372E-03 .234150E-03    17.38  .305948E-04 100.00 3  6   0 1  6   1 1  6   2 1
 224 -.444010E-03 .292462E-03    23.40  .131709E-05 100.00 3  6   0 1  6   1 1  8   0 1
 225  .125874E-02 .332527E-03   145.49  .181752E-32 100.00 2  6   0 1  6   1 2
 226 -.347847E-01 .166125E-01    44.52  .254193E-10 100.00 2  6   0 1  6   2 1
 227  .813204E-04 .320018E-04    65.56  .571954E-15 100.00 3  6   0 1  6   2 1  9   1 1
 228  .215009E-03 .114876E-03    35.57  .247454E-08 100.00 3  6   0 1  8   0 1  9   0 1
 229 -.164897E-03 .113846E-03    21.30  .393211E-05 100.00 3  6   0 1  8   0 1  9   1 1
 230 -.210219E-03 .120365E-03    30.97  .262864E-07 100.00 2  6   0 1  8   0 2
 231  .322566E-02 .101782E-02   101.98  .584042E-23 100.00 2  6   0 1  9   0 1
 232 -.165380E-05 .100033E-05    27.75  .138364E-06 100.00 2  6   0 1  9   0 2
 233  .353024E-03 .386750E-03     8.46  .363196E-02  99.64 2  6   0 2  8   0 1
 234 -.120628E-03 .190487E-04   407.17  .280040E-89 100.00 2  6   0 2  9   0 1
 235 -.518570E-03 .306061E-03    29.15  .672780E-07 100.00 1  6   0 3
 236  .239380E-01 .182215E-01    17.52  .284145E-04 100.00 2  6   1 1  6   2 1
 237 -.603388E-04 .311513E-04    38.09  .678095E-09 100.00 3  6   1 1  6   2 1  9   1 1
 238 -.236937E-01 .911591E-02    68.59  .123237E-15 100.00 2  6   1 1  8   0 1
 239 -.139694E-03 .142843E-03     9.71  .183277E-02  99.82 3  6   1 1  8   0 1  9   0 1
 240  .179682E-03 .139683E-03    16.80  .415587E-04 100.00 3  6   1 1  8   0 1  9   1 1
 241  .236239E-03 .132572E-03    32.24  .136743E-07 100.00 2  6   1 1  8   0 2
 242 -.604981E-03 .122725E-03   246.73  .168097E-54 100.00 2  6   1 1  9   0 1
 243 -.189617E-01 .149479E-01    16.34  .530402E-04  99.99 1  6   1 2
 244  .462084E-04 .282664E-04    27.13  .190391E-06 100.00 2  6   1 2  9   1 1
 245 -.395353E-06 .163271E-06    59.53  .121858E-13 100.00 2  6   2 1  9   0 2
 246  .904069E-02 .393771E-02    53.52  .258628E-12 100.00 1  6   2 2
 247  .596769E-02 .245401E-02    60.04  .940269E-14 100.00 2  8   0 1  9   0 1
 248 -.999770E-05 .544014E-05    34.29  .476533E-08 100.00 3  8   0 1  9   0 1  9   1 1
 249 -.537085E-02 .241389E-02    50.26  .135655E-11 100.00 2  8   0 1  9   1 1
 250  .746575E-05 .532884E-05    19.93  .804859E-05 100.00 2  8   0 1  9   1 2
 251 -.169737E-01 .405955E-02   177.50  .191255E-39 100.00 1  8   0 2
 252  .295107E-04 .861777E-05   119.06  .106965E-26 100.00 2  8   0 2  9   1 1
 253  .816781E-04 .255751E-04   103.56  .263220E-23 100.00 1  8   0 3
